%YAML 1.1
%TAG !u! tag:unity3d.com,2011:
--- !u!1 &107548104311273489
GameObject:
  m_ObjectHideFlags: 0
  m_CorrespondingSourceObject: {fileID: 0}
  m_PrefabInstance: {fileID: 0}
  m_PrefabAsset: {fileID: 0}
  serializedVersion: 6
  m_Component:
  - component: {fileID: 2968119901764974177}
  m_Layer: 0
  m_Name: Scenery
  m_TagString: Untagged
  m_Icon: {fileID: 0}
  m_NavMeshLayer: 0
  m_StaticEditorFlags: 0
  m_IsActive: 1
--- !u!4 &2968119901764974177
Transform:
  m_ObjectHideFlags: 0
  m_CorrespondingSourceObject: {fileID: 0}
  m_PrefabInstance: {fileID: 0}
  m_PrefabAsset: {fileID: 0}
  m_GameObject: {fileID: 107548104311273489}
  m_LocalRotation: {x: 0, y: 0, z: 0, w: 1}
  m_LocalPosition: {x: 0, y: 0, z: 0}
  m_LocalScale: {x: 1, y: 1, z: 1}
  m_ConstrainProportionsScale: 0
  m_Children:
  - {fileID: 2924114575384827911}
  m_Father: {fileID: 0}
  m_RootOrder: 0
  m_LocalEulerAnglesHint: {x: 0, y: 0, z: 0}
--- !u!1001 &8803561352275969048
PrefabInstance:
  m_ObjectHideFlags: 0
  serializedVersion: 2
  m_Modification:
    m_TransformParent: {fileID: 2968119901764974177}
    m_Modifications:
    - target: {fileID: 373173168674832424, guid: b300761c82345944fa8a68e96eba3e00,
        type: 3}
      propertyPath: m_Materials.Array.data[0]
      value: 
      objectReference: {fileID: 2100000, guid: 24481e37f341652429c652e75c5a74df, type: 2}
    - target: {fileID: 525497412102566326, guid: b300761c82345944fa8a68e96eba3e00,
        type: 3}
      propertyPath: m_Materials.Array.data[0]
      value: 
      objectReference: {fileID: 2100000, guid: f6c2b84eee256ac4db651df5bce1804c, type: 2}
    - target: {fileID: 581691662557966813, guid: b300761c82345944fa8a68e96eba3e00,
        type: 3}
      propertyPath: m_Materials.Array.data[0]
      value: 
      objectReference: {fileID: 2100000, guid: 8fc757e55610caa4a9c5386d4d4589f9, type: 2}
    - target: {fileID: 980631392648648080, guid: b300761c82345944fa8a68e96eba3e00,
        type: 3}
      propertyPath: m_Materials.Array.data[0]
      value: 
      objectReference: {fileID: 2100000, guid: fb1f450277a36894ea9c1eb221afcdce, type: 2}
    - target: {fileID: 1139397888964056431, guid: b300761c82345944fa8a68e96eba3e00,
        type: 3}
      propertyPath: m_Materials.Array.data[0]
      value: 
      objectReference: {fileID: 2100000, guid: fb1f450277a36894ea9c1eb221afcdce, type: 2}
    - target: {fileID: 2075849718412631478, guid: b300761c82345944fa8a68e96eba3e00,
        type: 3}
      propertyPath: m_Materials.Array.data[0]
      value: 
      objectReference: {fileID: 2100000, guid: b353cf91f9603914fbc44d173b46fcc9, type: 2}
    - target: {fileID: 2310541271678431466, guid: b300761c82345944fa8a68e96eba3e00,
        type: 3}
      propertyPath: m_Materials.Array.data[0]
      value: 
      objectReference: {fileID: 2100000, guid: fb1f450277a36894ea9c1eb221afcdce, type: 2}
    - target: {fileID: 2545318982875134070, guid: b300761c82345944fa8a68e96eba3e00,
        type: 3}
      propertyPath: m_Materials.Array.data[0]
      value: 
      objectReference: {fileID: 2100000, guid: a62b6ff6fa150da49af81ab5a3b9c7b3, type: 2}
    - target: {fileID: 3015731625161528572, guid: b300761c82345944fa8a68e96eba3e00,
        type: 3}
      propertyPath: m_Materials.Array.data[0]
      value: 
      objectReference: {fileID: 2100000, guid: fb1f450277a36894ea9c1eb221afcdce, type: 2}
    - target: {fileID: 3279063090576694485, guid: b300761c82345944fa8a68e96eba3e00,
        type: 3}
      propertyPath: m_Name
      value: LEGO
      objectReference: {fileID: 0}
    - target: {fileID: 3279063090576694485, guid: b300761c82345944fa8a68e96eba3e00,
        type: 3}
      propertyPath: m_IsActive
      value: 0
      objectReference: {fileID: 0}
    - target: {fileID: 3390344900070195818, guid: b300761c82345944fa8a68e96eba3e00,
        type: 3}
      propertyPath: m_Materials.Array.data[0]
      value: 
      objectReference: {fileID: 2100000, guid: a62b6ff6fa150da49af81ab5a3b9c7b3, type: 2}
    - target: {fileID: 3453332507295245645, guid: b300761c82345944fa8a68e96eba3e00,
        type: 3}
      propertyPath: m_Materials.Array.data[0]
      value: 
      objectReference: {fileID: 2100000, guid: 24481e37f341652429c652e75c5a74df, type: 2}
    - target: {fileID: 3681031752282871344, guid: b300761c82345944fa8a68e96eba3e00,
        type: 3}
      propertyPath: m_Materials.Array.data[0]
      value: 
      objectReference: {fileID: 2100000, guid: b353cf91f9603914fbc44d173b46fcc9, type: 2}
    - target: {fileID: 3707473719579984324, guid: b300761c82345944fa8a68e96eba3e00,
        type: 3}
      propertyPath: m_Materials.Array.data[0]
      value: 
      objectReference: {fileID: 2100000, guid: 24481e37f341652429c652e75c5a74df, type: 2}
    - target: {fileID: 3747309374584171594, guid: b300761c82345944fa8a68e96eba3e00,
        type: 3}
      propertyPath: m_Materials.Array.data[0]
      value: 
      objectReference: {fileID: 2100000, guid: 24481e37f341652429c652e75c5a74df, type: 2}
    - target: {fileID: 3858846348009971862, guid: b300761c82345944fa8a68e96eba3e00,
        type: 3}
      propertyPath: m_Materials.Array.data[0]
      value: 
      objectReference: {fileID: 2100000, guid: 24481e37f341652429c652e75c5a74df, type: 2}
    - target: {fileID: 4220222481652961814, guid: b300761c82345944fa8a68e96eba3e00,
        type: 3}
      propertyPath: m_Materials.Array.data[0]
      value: 
      objectReference: {fileID: 2100000, guid: a62b6ff6fa150da49af81ab5a3b9c7b3, type: 2}
    - target: {fileID: 4236259399604018402, guid: b300761c82345944fa8a68e96eba3e00,
        type: 3}
      propertyPath: m_LocalPosition.x
      value: -3.49
      objectReference: {fileID: 0}
    - target: {fileID: 5124991435448370608, guid: b300761c82345944fa8a68e96eba3e00,
        type: 3}
      propertyPath: m_Materials.Array.data[0]
      value: 
      objectReference: {fileID: 2100000, guid: b353cf91f9603914fbc44d173b46fcc9, type: 2}
    - target: {fileID: 5279673604259291159, guid: b300761c82345944fa8a68e96eba3e00,
        type: 3}
      propertyPath: m_Materials.Array.data[0]
      value: 
      objectReference: {fileID: 2100000, guid: f6c2b84eee256ac4db651df5bce1804c, type: 2}
    - target: {fileID: 5680471151738773926, guid: b300761c82345944fa8a68e96eba3e00,
        type: 3}
      propertyPath: m_Materials.Array.data[0]
      value: 
      objectReference: {fileID: 2100000, guid: a62b6ff6fa150da49af81ab5a3b9c7b3, type: 2}
    - target: {fileID: 5960517262226922527, guid: b300761c82345944fa8a68e96eba3e00,
        type: 3}
      propertyPath: m_RootOrder
      value: 0
      objectReference: {fileID: 0}
    - target: {fileID: 5960517262226922527, guid: b300761c82345944fa8a68e96eba3e00,
        type: 3}
      propertyPath: m_LocalPosition.x
      value: 0
      objectReference: {fileID: 0}
    - target: {fileID: 5960517262226922527, guid: b300761c82345944fa8a68e96eba3e00,
        type: 3}
      propertyPath: m_LocalPosition.y
      value: 0
      objectReference: {fileID: 0}
    - target: {fileID: 5960517262226922527, guid: b300761c82345944fa8a68e96eba3e00,
        type: 3}
      propertyPath: m_LocalPosition.z
      value: 0
      objectReference: {fileID: 0}
    - target: {fileID: 5960517262226922527, guid: b300761c82345944fa8a68e96eba3e00,
        type: 3}
      propertyPath: m_LocalRotation.w
      value: 1
      objectReference: {fileID: 0}
    - target: {fileID: 5960517262226922527, guid: b300761c82345944fa8a68e96eba3e00,
        type: 3}
      propertyPath: m_LocalRotation.x
      value: -0
      objectReference: {fileID: 0}
    - target: {fileID: 5960517262226922527, guid: b300761c82345944fa8a68e96eba3e00,
        type: 3}
      propertyPath: m_LocalRotation.y
      value: -0
      objectReference: {fileID: 0}
    - target: {fileID: 5960517262226922527, guid: b300761c82345944fa8a68e96eba3e00,
        type: 3}
      propertyPath: m_LocalRotation.z
      value: -0
      objectReference: {fileID: 0}
    - target: {fileID: 5960517262226922527, guid: b300761c82345944fa8a68e96eba3e00,
        type: 3}
      propertyPath: m_LocalEulerAnglesHint.x
      value: 0
      objectReference: {fileID: 0}
    - target: {fileID: 5960517262226922527, guid: b300761c82345944fa8a68e96eba3e00,
        type: 3}
      propertyPath: m_LocalEulerAnglesHint.y
      value: 0
      objectReference: {fileID: 0}
    - target: {fileID: 5960517262226922527, guid: b300761c82345944fa8a68e96eba3e00,
        type: 3}
      propertyPath: m_LocalEulerAnglesHint.z
      value: 0
      objectReference: {fileID: 0}
    - target: {fileID: 6076651797293892442, guid: b300761c82345944fa8a68e96eba3e00,
        type: 3}
      propertyPath: m_Materials.Array.data[0]
      value: 
      objectReference: {fileID: 2100000, guid: b353cf91f9603914fbc44d173b46fcc9, type: 2}
    - target: {fileID: 6174819931112155777, guid: b300761c82345944fa8a68e96eba3e00,
        type: 3}
      propertyPath: m_Materials.Array.data[0]
      value: 
      objectReference: {fileID: 2100000, guid: b353cf91f9603914fbc44d173b46fcc9, type: 2}
    - target: {fileID: 7160231305921201372, guid: b300761c82345944fa8a68e96eba3e00,
        type: 3}
      propertyPath: m_Materials.Array.data[0]
      value: 
      objectReference: {fileID: 2100000, guid: 8fc757e55610caa4a9c5386d4d4589f9, type: 2}
    - target: {fileID: 7333642186033463280, guid: b300761c82345944fa8a68e96eba3e00,
        type: 3}
      propertyPath: m_Materials.Array.data[0]
      value: 
      objectReference: {fileID: 2100000, guid: a62b6ff6fa150da49af81ab5a3b9c7b3, type: 2}
    - target: {fileID: 8217733636333473018, guid: b300761c82345944fa8a68e96eba3e00,
        type: 3}
      propertyPath: m_Materials.Array.data[0]
      value: 
      objectReference: {fileID: 2100000, guid: 24481e37f341652429c652e75c5a74df, type: 2}
    - target: {fileID: 8471862207378692771, guid: b300761c82345944fa8a68e96eba3e00,
        type: 3}
      propertyPath: m_Materials.Array.data[0]
      value: 
      objectReference: {fileID: 2100000, guid: fb1f450277a36894ea9c1eb221afcdce, type: 2}
    - target: {fileID: 8708368628867033308, guid: b300761c82345944fa8a68e96eba3e00,
        type: 3}
      propertyPath: m_Materials.Array.data[0]
      value: 
      objectReference: {fileID: 2100000, guid: fb1f450277a36894ea9c1eb221afcdce, type: 2}
    - target: {fileID: 8851067499637188311, guid: b300761c82345944fa8a68e96eba3e00,
        type: 3}
      propertyPath: m_LocalPosition.x
      value: -3.49
      objectReference: {fileID: 0}
    - target: {fileID: 9013704523332976250, guid: b300761c82345944fa8a68e96eba3e00,
        type: 3}
      propertyPath: m_Materials.Array.data[0]
      value: 
      objectReference: {fileID: 2100000, guid: f6c2b84eee256ac4db651df5bce1804c, type: 2}
    m_RemovedComponents: []
  m_SourcePrefab: {fileID: 100100000, guid: b300761c82345944fa8a68e96eba3e00, type: 3}
--- !u!4 &2924114575384827911 stripped
Transform:
  m_CorrespondingSourceObject: {fileID: 5960517262226922527, guid: b300761c82345944fa8a68e96eba3e00,
    type: 3}
  m_PrefabInstance: {fileID: 8803561352275969048}
  m_PrefabAsset: {fileID: 0}
